Lab4_ISA/Lab4_Adder_Sub/sim/transcript
# //  Questa Sim-64
# //  Version 10.7c linux_x86_64 Aug 17 2018
# //
# //  Copyright 1991-2018 Mentor Graphics Corporation
# //  All Rights Reserved.
# //
# //  QuestaSim and its associated documentation contain trade
# //  secrets and commercial or financial information that are the property of
# //  Mentor Graphics Corporation and are privileged, confidential,
# //  and exempt from disclosure under the Freedom of Information Act,
# //  5 U.S.C. Section 552. Furthermore, this information
# //  is prohibited from disclosure under the Trade Secrets Act,
# //  18 U.S.C. Section 1905.
# //
# vsim top 
# Start time: 20:55:36 on Feb 01,2022
# ** Note: (vsim-3812) Design is being optimized...
# ** Warning: ../tb/monitor.sv(49): (vopt-2240) Treating stand-alone use of function 'begin_tr' as an implicit VOID cast.
# ** Warning: ../tb/monitor_out.sv(48): (vopt-2240) Treating stand-alone use of function 'begin_tr' as an implicit VOID cast.
# Loading sv_std.std
# Loading mtiUvm.uvm_pkg
# Loading work.top_sv_unit(fast)
# Loading work.top(fast)
# Loading work.DUT(fast)
# Loading mtiUvm.questa_uvm_pkg(fast)
# Loading work.dut_if(fast)
# ** Warning: (vsim-3838) Variable '/top/out/data' written by continuous and procedural assignments. 
# One of the assignments is implicit. See ../src/DUT.sv(9).
#    Time: 0 ns  Iteration: 0  Instance: /top/sum File: ../src/DUT.sv Line: 3
# ** Warning: (vsim-3764) Stand-alone call to function 'begin_tr' treated as implicit void cast.
#    Time: 0 ns  Iteration: 0  Region: /top_sv_unit::driver File: ../tb/driver.sv Line: 67
# Loading /software/mentor/questa10.7c/questasim/uvm-1.1d/linux_x86_64/uvm_dpi.so
run 4 us
# ----------------------------------------------------------------
# UVM-1.1d
# (C) 2007-2013 Mentor Graphics Corporation
# (C) 2007-2013 Cadence Design Systems, Inc.
# (C) 2006-2013 Synopsys, Inc.
# (C) 2011-2013 Cypress Semiconductor Corp.
# ----------------------------------------------------------------
# 
#   ***********       IMPORTANT RELEASE NOTES         ************
# 
#   You are using a version of the UVM library that has been compiled
#   with `UVM_NO_DEPRECATED undefined.
#   See http://www.eda.org/svdb/view.php?id=3313 for more details.
# 
#   You are using a version of the UVM library that has been compiled
#   with `UVM_OBJECT_MUST_HAVE_CONSTRUCTOR undefined.
#   See http://www.eda.org/svdb/view.php?id=3770 for more details.
# 
#       (Specify +UVM_NO_RELNOTES to turn off this notice)
# 
# UVM_INFO verilog_src/questa_uvm_pkg-1.2/src/questa_uvm_pkg.sv(215) @ 0: reporter [Questa UVM] QUESTA_UVM-1.2.3
# UVM_INFO verilog_src/questa_uvm_pkg-1.2/src/questa_uvm_pkg.sv(216) @ 0: reporter [Questa UVM]  questa_uvm::init(+struct)
# UVM_INFO @ 0: reporter [RNTST] Running test simple_test...
# adder: input A =        809, input B = 2518942569, output OUT = 1776025536
# adder: input A = 00000000000000000000001100101001, input B = 10010110001001000000001101101001, output OUT = 01101001110110111111111111000000
# refmod: input A =         809, input B = -1776024727, output OUT = -1776023918
# refmod: input A = 00000000000000000000001100101001, input B = 10010110001001000000001101101001, output OUT = 10010110001001000000011010010010
# UVM_INFO @ 45: reporter [MISCMP] Miscompare for exp.data: lhs = 'h96240692 : rhs = 'h69dbffc0
# UVM_INFO @ 45: reporter [MISCMP] 1 Miscompare(s) for object tr@825 vs. exp@617
# UVM_WARNING @ 45: uvm_test_top.env_h.comp [Comparator Mismatch] 
# adder: input A =        677, input B = 2774305271, output OUT = 1520662702
# adder: input A = 00000000000000000000001010100101, input B = 10100101010111001000100111110111, output OUT = 01011010101000110111100010101110
# refmod: input A =         677, input B = -1520662025, output OUT = -1520661348
# refmod: input A = 00000000000000000000001010100101, input B = 10100101010111001000100111110111, output OUT = 10100101010111001000110010011100
# UVM_INFO @ 75: reporter [MISCMP] Miscompare for exp.data: lhs = 'ha55c8c9c : rhs = 'h5aa378ae
# UVM_INFO @ 75: reporter [MISCMP] 1 Miscompare(s) for object tr@825 vs. exp@617
# UVM_WARNING @ 75: uvm_test_top.env_h.comp [Comparator Mismatch] 
# adder: input A =        337, input B = 2721861113, output OUT = 1573106520
# adder: input A = 00000000000000000000000101010001, input B = 10100010001111000100110111111001, output OUT = 01011101110000111011001101011000
# refmod: input A =         337, input B = -1573106183, output OUT = -1573105846
# refmod: input A = 00000000000000000000000101010001, input B = 10100010001111000100110111111001, output OUT = 10100010001111000100111101001010
# UVM_INFO @ 105: reporter [MISCMP] Miscompare for exp.data: lhs = 'ha23c4f4a : rhs = 'h5dc3b358
# UVM_INFO @ 105: reporter [MISCMP] 1 Miscompare(s) for object tr@825 vs. exp@617
# UVM_WARNING @ 105: uvm_test_top.env_h.comp [Comparator Mismatch] 
# adder: input A =        653, input B = 3079128966, output OUT = 1215838983
# adder: input A = 00000000000000000000001010001101, input B = 10110111100001111100011110000110, output OUT = 01001000011110000011101100000111
# refmod: input A =         653, input B = -1215838330, output OUT = -1215837677
# refmod: input A = 00000000000000000000001010001101, input B = 10110111100001111100011110000110, output OUT = 10110111100001111100101000010011
# UVM_INFO @ 135: reporter [MISCMP] Miscompare for exp.data: lhs = 'hb787ca13 : rhs = 'h48783b07
# UVM_INFO @ 135: reporter [MISCMP] 1 Miscompare(s) for object tr@825 vs. exp@617
# UVM_WARNING @ 135: uvm_test_top.env_h.comp [Comparator Mismatch] 
# adder: input A =        734, input B = 2814418271, output OUT = 1480549759
# adder: input A = 00000000000000000000001011011110, input B = 10100111110000001001110101011111, output OUT = 01011000001111110110010101111111
# refmod: input A =         734, input B = -1480549025, output OUT = -1480548291
# refmod: input A = 00000000000000000000001011011110, input B = 10100111110000001001110101011111, output OUT = 10100111110000001010000000111101
# UVM_INFO @ 165: reporter [MISCMP] Miscompare for exp.data: lhs = 'ha7c0a03d : rhs = 'h583f657f
# UVM_INFO @ 165: reporter [MISCMP] 1 Miscompare(s) for object tr@825 vs. exp@617
# UVM_WARNING @ 165: uvm_test_top.env_h.comp [Comparator Mismatch] 
# adder: input A =        569, input B = 2728146874, output OUT = 1566820991
# adder: input A = 00000000000000000000001000111001, input B = 10100010100111000011011110111010, output OUT = 01011101011000111100101001111111
# refmod: input A =         569, input B = -1566820422, output OUT = -1566819853
# refmod: input A = 00000000000000000000001000111001, input B = 10100010100111000011011110111010, output OUT = 10100010100111000011100111110011
# UVM_INFO @ 195: reporter [MISCMP] Miscompare for exp.data: lhs = 'ha29c39f3 : rhs = 'h5d63ca7f
# UVM_INFO @ 195: reporter [MISCMP] 1 Miscompare(s) for object tr@825 vs. exp@617
# UVM_WARNING @ 195: uvm_test_top.env_h.comp [Comparator Mismatch] 
# adder: input A =        397, input B = 2723932317, output OUT = 1571035376
# adder: input A = 00000000000000000000000110001101, input B = 10100010010110111110100010011101, output OUT = 01011101101001000001100011110000
# refmod: input A =         397, input B = -1571034979, output OUT = -1571034582
# refmod: input A = 00000000000000000000000110001101, input B = 10100010010110111110100010011101, output OUT = 10100010010110111110101000101010
# UVM_INFO @ 225: reporter [MISCMP] Miscompare for exp.data: lhs = 'ha25bea2a : rhs = 'h5da418f0
# UVM_INFO @ 225: reporter [MISCMP] 1 Miscompare(s) for object tr@825 vs. exp@617
# UVM_WARNING @ 225: uvm_test_top.env_h.comp [Comparator Mismatch] 
# adder: input A =        671, input B = 3137793582, output OUT = 1157174385
# adder: input A = 00000000000000000000001010011111, input B = 10111011000001101110111000101110, output OUT = 01000100111110010001010001110001
# refmod: input A =         671, input B = -1157173714, output OUT = -1157173043
# refmod: input A = 00000000000000000000001010011111, input B = 10111011000001101110111000101110, output OUT = 10111011000001101111000011001101
# UVM_INFO @ 255: reporter [MISCMP] Miscompare for exp.data: lhs = 'hbb06f0cd : rhs = 'h44f91471
# UVM_INFO @ 255: reporter [MISCMP] 1 Miscompare(s) for object tr@825 vs. exp@617
# UVM_WARNING @ 255: uvm_test_top.env_h.comp [Comparator Mismatch] 
# adder: input A =        652, input B = 3316806189, output OUT =  978161759
# adder: input A = 00000000000000000000001010001100, input B = 11000101101100100111001000101101, output OUT = 00111010010011011001000001011111
# refmod: input A =         652, input B =  -978161107, output OUT =  -978160455
# refmod: input A = 00000000000000000000001010001100, input B = 11000101101100100111001000101101, output OUT = 11000101101100100111010010111001
# UVM_INFO @ 285: reporter [MISCMP] Miscompare for exp.data: lhs = 'hc5b274b9 : rhs = 'h3a4d905f
# UVM_INFO @ 285: reporter [MISCMP] 1 Miscompare(s) for object tr@825 vs. exp@617
# UVM_WARNING @ 285: uvm_test_top.env_h.comp [Comparator Mismatch] 
# adder: input A =        804, input B = 3392597977, output OUT =  902370123
# adder: input A = 00000000000000000000001100100100, input B = 11001010001101101110111111011001, output OUT = 00110101110010010001001101001011
# refmod: input A =         804, input B =  -902369319, output OUT =  -902368515
# refmod: input A = 00000000000000000000001100100100, input B = 11001010001101101110111111011001, output OUT = 11001010001101101111001011111101
# UVM_INFO @ 315: reporter [MISCMP] Miscompare for exp.data: lhs = 'hca36f2fd : rhs = 'h35c9134b
# UVM_INFO @ 315: reporter [MISCMP] 1 Miscompare(s) for object tr@825 vs. exp@617
# UVM_WARNING @ 315: uvm_test_top.env_h.comp [Comparator Mismatch] 
# adder: input A =        275, input B = 3232674287, output OUT = 1062293284
# adder: input A = 00000000000000000000000100010011, input B = 11000000101011101011000111101111, output OUT = 00111111010100010100111100100100
# refmod: input A =         275, input B = -1062293009, output OUT = -1062292734
# refmod: input A = 00000000000000000000000100010011, input B = 11000000101011101011000111101111, output OUT = 11000000101011101011001100000010
# UVM_INFO @ 345: reporter [MISCMP] Miscompare for exp.data: lhs = 'hc0aeb302 : rhs = 'h3f514f24
# UVM_INFO @ 345: reporter [MISCMP] 1 Miscompare(s) for object tr@825 vs. exp@617
# UVM_WARNING @ 345: uvm_test_top.env_h.comp [Comparator Mismatch] 
# adder: input A =        952, input B = 2457640446, output OUT = 1837327802
# adder: input A = 00000000000000000000001110111000, input B = 10010010011111001001110111111110, output OUT = 01101101100000110110010110111010
# refmod: input A =         952, input B = -1837326850, output OUT = -1837325898
# refmod: input A = 00000000000000000000001110111000, input B = 10010010011111001001110111111110, output OUT = 10010010011111001010000110110110
# UVM_INFO @ 375: reporter [MISCMP] Miscompare for exp.data: lhs = 'h927ca1b6 : rhs = 'h6d8365ba
# UVM_INFO @ 375: reporter [MISCMP] 1 Miscompare(s) for object tr@825 vs. exp@617
# UVM_WARNING @ 375: uvm_test_top.env_h.comp [Comparator Mismatch] 
# adder: input A =        413, input B = 3704323614, output OUT =  590644095
# adder: input A = 00000000000000000000000110011101, input B = 11011100110010110111111000011110, output OUT = 00100011001101001000001101111111
# refmod: input A =         413, input B =  -590643682, output OUT =  -590643269
# refmod: input A = 00000000000000000000000110011101, input B = 11011100110010110111111000011110, output OUT = 11011100110010110111111110111011
# UVM_INFO @ 405: reporter [MISCMP] Miscompare for exp.data: lhs = 'hdccb7fbb : rhs = 'h2334837f
# UVM_INFO @ 405: reporter [MISCMP] 1 Miscompare(s) for object tr@825 vs. exp@617
# UVM_WARNING @ 405: uvm_test_top.env_h.comp [Comparator Mismatch] 
# adder: input A =        872, input B = 3502714714, output OUT =  792253454
# adder: input A = 00000000000000000000001101101000, input B = 11010000110001110010111101011010, output OUT = 00101111001110001101010000001110
# refmod: input A =         872, input B =  -792252582, output OUT =  -792251710
# refmod: input A = 00000000000000000000001101101000, input B = 11010000110001110010111101011010, output OUT = 11010000110001110011001011000010
# UVM_INFO @ 435: reporter [MISCMP] Miscompare for exp.data: lhs = 'hd0c732c2 : rhs = 'h2f38d40e
# UVM_INFO @ 435: reporter [MISCMP] 1 Miscompare(s) for object tr@825 vs. exp@617
# UVM_WARNING @ 435: uvm_test_top.env_h.comp [Comparator Mismatch] 
# adder: input A =        650, input B = 3127994423, output OUT = 1166973523
# adder: input A = 00000000000000000000001010001010, input B = 10111010011100010110100000110111, output OUT = 01000101100011101001101001010011
# refmod: input A =         650, input B = -1166972873, output OUT = -1166972223
# refmod: input A = 00000000000000000000001010001010, input B = 10111010011100010110100000110111, output OUT = 10111010011100010110101011000001
# UVM_INFO @ 465: reporter [MISCMP] Miscompare for exp.data: lhs = 'hba716ac1 : rhs = 'h458e9a53
# UVM_INFO @ 465: reporter [MISCMP] 1 Miscompare(s) for object tr@825 vs. exp@617
# UVM_WARNING @ 465: uvm_test_top.env_h.comp [Comparator Mismatch] 
# adder: input A =        159, input B = 2701621257, output OUT = 1593346198
# adder: input A = 00000000000000000000000010011111, input B = 10100001000001110111100000001001, output OUT = 01011110111110001000100010010110
# refmod: input A =         159, input B = -1593346039, output OUT = -1593345880
# refmod: input A = 00000000000000000000000010011111, input B = 10100001000001110111100000001001, output OUT = 10100001000001110111100010101000
# UVM_INFO @ 495: reporter [MISCMP] Miscompare for exp.data: lhs = 'ha10778a8 : rhs = 'h5ef88896
# UVM_INFO @ 495: reporter [MISCMP] 1 Miscompare(s) for object tr@825 vs. exp@617
# UVM_WARNING @ 495: uvm_test_top.env_h.comp [Comparator Mismatch] 
# adder: input A =        414, input B = 3788755530, output OUT =  506212180
# adder: input A = 00000000000000000000000110011110, input B = 11100001110100111101001001001010, output OUT = 00011110001011000010111101010100
# refmod: input A =         414, input B =  -506211766, output OUT =  -506211352
# refmod: input A = 00000000000000000000000110011110, input B = 11100001110100111101001001001010, output OUT = 11100001110100111101001111101000
# UVM_INFO @ 525: reporter [MISCMP] Miscompare for exp.data: lhs = 'he1d3d3e8 : rhs = 'h1e2c2f54
# UVM_INFO @ 525: reporter [MISCMP] 1 Miscompare(s) for object tr@825 vs. exp@617
# UVM_WARNING @ 525: uvm_test_top.env_h.comp [Comparator Mismatch] 
# adder: input A =        588, input B = 2412020465, output OUT = 1882947419
# adder: input A = 00000000000000000000001001001100, input B = 10001111110001001000001011110001, output OUT = 01110000001110110111111101011011
# refmod: input A =         588, input B = -1882946831, output OUT = -1882946243
# refmod: input A = 00000000000000000000001001001100, input B = 10001111110001001000001011110001, output OUT = 10001111110001001000010100111101
# UVM_INFO @ 555: reporter [MISCMP] Miscompare for exp.data: lhs = 'h8fc4853d : rhs = 'h703b7f5b
# UVM_INFO @ 555: reporter [MISCMP] 1 Miscompare(s) for object tr@825 vs. exp@617
# UVM_WARNING @ 555: uvm_test_top.env_h.comp [Comparator Mismatch] 
# adder: input A =        679, input B = 3150648938, output OUT = 1144319037
# adder: input A = 00000000000000000000001010100111, input B = 10111011110010110001011001101010, output OUT = 01000100001101001110110000111101
# refmod: input A =         679, input B = -1144318358, output OUT = -1144317679
# refmod: input A = 00000000000000000000001010100111, input B = 10111011110010110001011001101010, output OUT = 10111011110010110001100100010001
# UVM_INFO @ 585: reporter [MISCMP] Miscompare for exp.data: lhs = 'hbbcb1911 : rhs = 'h4434ec3d
# UVM_INFO @ 585: reporter [MISCMP] 1 Miscompare(s) for object tr@825 vs. exp@617
# UVM_WARNING @ 585: uvm_test_top.env_h.comp [Comparator Mismatch] 
# adder: input A =        776, input B = 2882976903, output OUT = 1411991169
# adder: input A = 00000000000000000000001100001000, input B = 10101011110101101011110010000111, output OUT = 01010100001010010100011010000001
# refmod: input A =         776, input B = -1411990393, output OUT = -1411989617
# refmod: input A = 00000000000000000000001100001000, input B = 10101011110101101011110010000111, output OUT = 10101011110101101011111110001111
# UVM_INFO @ 615: reporter [MISCMP] Miscompare for exp.data: lhs = 'habd6bf8f : rhs = 'h54294681
# UVM_INFO @ 615: reporter [MISCMP] 1 Miscompare(s) for object tr@825 vs. exp@617
# UVM_WARNING @ 615: uvm_test_top.env_h.comp [Comparator Mismatch] 
# adder: input A =        196, input B = 3969227115, output OUT =  325740377
# adder: input A = 00000000000000000000000011000100, input B = 11101100100101011001100101101011, output OUT = 00010011011010100110011101011001
# refmod: input A =         196, input B =  -325740181, output OUT =  -325739985
# refmod: input A = 00000000000000000000000011000100, input B = 11101100100101011001100101101011, output OUT = 11101100100101011001101000101111
# UVM_INFO @ 645: reporter [MISCMP] Miscompare for exp.data: lhs = 'hec959a2f : rhs = 'h136a6759
# UVM_INFO @ 645: reporter [MISCMP] 1 Miscompare(s) for object tr@825 vs. exp@617
# UVM_WARNING @ 645: uvm_test_top.env_h.comp [Comparator Mismatch] 
# adder: input A =        613, input B = 4164964412, output OUT =  130003497
# adder: input A = 00000000000000000000001001100101, input B = 11111000010000000101000000111100, output OUT = 00000111101111111011001000101001
# refmod: input A =         613, input B =  -130002884, output OUT =  -130002271
# refmod: input A = 00000000000000000000001001100101, input B = 11111000010000000101000000111100, output OUT = 11111000010000000101001010100001
# UVM_INFO @ 675: reporter [MISCMP] Miscompare for exp.data: lhs = 'hf84052a1 : rhs = 'h7bfb229
# UVM_INFO @ 675: reporter [MISCMP] 1 Miscompare(s) for object tr@825 vs. exp@617
# UVM_WARNING @ 675: uvm_test_top.env_h.comp [Comparator Mismatch] 
# adder: input A =        591, input B = 4047532198, output OUT =  247435689
# adder: input A = 00000000000000000000001001001111, input B = 11110001010000000111000010100110, output OUT = 00001110101111111001000110101001
# refmod: input A =         591, input B =  -247435098, output OUT =  -247434507
# refmod: input A = 00000000000000000000001001001111, input B = 11110001010000000111000010100110, output OUT = 11110001010000000111001011110101
# UVM_INFO @ 705: reporter [MISCMP] Miscompare for exp.data: lhs = 'hf14072f5 : rhs = 'hebf91a9
# UVM_INFO @ 705: reporter [MISCMP] 1 Miscompare(s) for object tr@825 vs. exp@617
# UVM_WARNING @ 705: uvm_test_top.env_h.comp [Comparator Mismatch] 
# adder: input A =        854, input B = 3248832319, output OUT = 1046135831
# adder: input A = 00000000000000000000001101010110, input B = 11000001101001010011111100111111, output OUT = 00111110010110101100010000010111
# refmod: input A =         854, input B = -1046134977, output OUT = -1046134123
# refmod: input A = 00000000000000000000001101010110, input B = 11000001101001010011111100111111, output OUT = 11000001101001010100001010010101
# UVM_INFO @ 735: reporter [MISCMP] Miscompare for exp.data: lhs = 'hc1a54295 : rhs = 'h3e5ac417
# UVM_INFO @ 735: reporter [MISCMP] 1 Miscompare(s) for object tr@825 vs. exp@617
# UVM_WARNING @ 735: uvm_test_top.env_h.comp [Comparator Mismatch] 
# adder: input A =        722, input B = 3496798236, output OUT =  798169782
# adder: input A = 00000000000000000000001011010010, input B = 11010000011011001110100000011100, output OUT = 00101111100100110001101010110110
# refmod: input A =         722, input B =  -798169060, output OUT =  -798168338
# refmod: input A = 00000000000000000000001011010010, input B = 11010000011011001110100000011100, output OUT = 11010000011011001110101011101110
# UVM_INFO @ 765: reporter [MISCMP] Miscompare for exp.data: lhs = 'hd06ceaee : rhs = 'h2f931ab6
# UVM_INFO @ 765: reporter [MISCMP] 1 Miscompare(s) for object tr@825 vs. exp@617
# UVM_WARNING @ 765: uvm_test_top.env_h.comp [Comparator Mismatch] 
# adder: input A =        483, input B = 2397751988, output OUT = 1897215791
# adder: input A = 00000000000000000000000111100011, input B = 10001110111010101100101010110100, output OUT = 01110001000101010011011100101111
# refmod: input A =         483, input B = -1897215308, output OUT = -1897214825
# refmod: input A = 00000000000000000000000111100011, input B = 10001110111010101100101010110100, output OUT = 10001110111010101100110010010111
# UVM_INFO @ 795: reporter [MISCMP] Miscompare for exp.data: lhs = 'h8eeacc97 : rhs = 'h7115372f
# UVM_INFO @ 795: reporter [MISCMP] 1 Miscompare(s) for object tr@825 vs. exp@617
# UVM_WARNING @ 795: uvm_test_top.env_h.comp [Comparator Mismatch] 
# adder: input A =        728, input B = 3271159051, output OUT = 1023808973
# adder: input A = 00000000000000000000001011011000, input B = 11000010111110011110110100001011, output OUT = 00111101000001100001010111001101
# refmod: input A =         728, input B = -1023808245, output OUT = -1023807517
# refmod: input A = 00000000000000000000001011011000, input B = 11000010111110011110110100001011, output OUT = 11000010111110011110111111100011
# UVM_INFO @ 825: reporter [MISCMP] Miscompare for exp.data: lhs = 'hc2f9efe3 : rhs = 'h3d0615cd
# UVM_INFO @ 825: reporter [MISCMP] 1 Miscompare(s) for object tr@825 vs. exp@617
# UVM_WARNING @ 825: uvm_test_top.env_h.comp [Comparator Mismatch] 
# adder: input A =        186, input B = 2585876433, output OUT = 1709091049
# adder: input A = 00000000000000000000000010111010, input B = 10011010001000010101011111010001, output OUT = 01100101110111101010100011101001
# refmod: input A =         186, input B = -1709090863, output OUT = -1709090677
# refmod: input A = 00000000000000000000000010111010, input B = 10011010001000010101011111010001, output OUT = 10011010001000010101100010001011
# UVM_INFO @ 855: reporter [MISCMP] Miscompare for exp.data: lhs = 'h9a21588b : rhs = 'h65dea8e9
# UVM_INFO @ 855: reporter [MISCMP] 1 Miscompare(s) for object tr@825 vs. exp@617
# UVM_WARNING @ 855: uvm_test_top.env_h.comp [Comparator Mismatch] 
# adder: input A =        513, input B =       2554, output OUT = 4294965255
# adder: input A = 00000000000000000000001000000001, input B = 00000000000000000000100111111010, output OUT = 11111111111111111111100000000111
# refmod: input A =         513, input B =        2554, output OUT =        3067
# refmod: input A = 00000000000000000000001000000001, input B = 00000000000000000000100111111010, output OUT = 00000000000000000000101111111011
# UVM_INFO @ 885: reporter [MISCMP] Miscompare for exp.data: lhs = 'hbfb : rhs = 'hfffff807
# UVM_INFO @ 885: reporter [MISCMP] 1 Miscompare(s) for object tr@825 vs. exp@617
# UVM_WARNING @ 885: uvm_test_top.env_h.comp [Comparator Mismatch] 
# adder: input A =        352, input B = 3627092954, output OUT =  667874694
# adder: input A = 00000000000000000000000101100000, input B = 11011000001100010000101111011010, output OUT = 00100111110011101111010110000110
# refmod: input A =         352, input B =  -667874342, output OUT =  -667873990
# refmod: input A = 00000000000000000000000101100000, input B = 11011000001100010000101111011010, output OUT = 11011000001100010000110100111010
# UVM_INFO @ 915: reporter [MISCMP] Miscompare for exp.data: lhs = 'hd8310d3a : rhs = 'h27cef586
# UVM_INFO @ 915: reporter [MISCMP] 1 Miscompare(s) for object tr@825 vs. exp@617
# UVM_WARNING @ 915: uvm_test_top.env_h.comp [Comparator Mismatch] 
# adder: input A =        828, input B = 2803237283, output OUT = 1491730841
# adder: input A = 00000000000000000000001100111100, input B = 10100111000101100000000110100011, output OUT = 01011000111010100000000110011001
# refmod: input A =         828, input B = -1491730013, output OUT = -1491729185
# refmod: input A = 00000000000000000000001100111100, input B = 10100111000101100000000110100011, output OUT = 10100111000101100000010011011111
# UVM_INFO @ 945: reporter [MISCMP] Miscompare for exp.data: lhs = 'ha71604df : rhs = 'h58ea0199
# UVM_INFO @ 945: reporter [MISCMP] 1 Miscompare(s) for object tr@825 vs. exp@617
# UVM_WARNING @ 945: uvm_test_top.env_h.comp [Comparator Mismatch] 
# adder: input A =        616, input B = 2648246288, output OUT = 1646721624
# adder: input A = 00000000000000000000001001101000, input B = 10011101110110010000100000010000, output OUT = 01100010001001101111101001011000
# refmod: input A =         616, input B = -1646721008, output OUT = -1646720392
# refmod: input A = 00000000000000000000001001101000, input B = 10011101110110010000100000010000, output OUT = 10011101110110010000101001111000
# UVM_INFO @ 975: reporter [MISCMP] Miscompare for exp.data: lhs = 'h9dd90a78 : rhs = 'h6226fa58
# UVM_INFO @ 975: reporter [MISCMP] 1 Miscompare(s) for object tr@825 vs. exp@617
# UVM_WARNING @ 975: uvm_test_top.env_h.comp [Comparator Mismatch] 
# adder: input A =        523, input B = 3453448200, output OUT =  841519619
# adder: input A = 00000000000000000000001000001011, input B = 11001101110101110111000000001000, output OUT = 00110010001010001001001000000011
# refmod: input A =         523, input B =  -841519096, output OUT =  -841518573
# refmod: input A = 00000000000000000000001000001011, input B = 11001101110101110111000000001000, output OUT = 11001101110101110111001000010011
# UVM_INFO @ 1005: reporter [MISCMP] Miscompare for exp.data: lhs = 'hcdd77213 : rhs = 'h32289203
# UVM_INFO @ 1005: reporter [MISCMP] 1 Miscompare(s) for object tr@825 vs. exp@617
# UVM_WARNING @ 1005: uvm_test_top.env_h.comp [Comparator Mismatch] 
# adder: input A =        222, input B = 3167878549, output OUT = 1127088969
# adder: input A = 00000000000000000000000011011110, input B = 10111100110100011111110110010101, output OUT = 01000011001011100000001101001001
# refmod: input A =         222, input B = -1127088747, output OUT = -1127088525
# refmod: input A = 00000000000000000000000011011110, input B = 10111100110100011111110110010101, output OUT = 10111100110100011111111001110011
# UVM_INFO @ 1035: reporter [MISCMP] Miscompare for exp.data: lhs = 'hbcd1fe73 : rhs = 'h432e0349
# UVM_INFO @ 1035: reporter [MISCMP] 1 Miscompare(s) for object tr@825 vs. exp@617
# UVM_WARNING @ 1035: uvm_test_top.env_h.comp [Comparator Mismatch] 
# adder: input A =        846, input B = 3208522322, output OUT = 1086445820
# adder: input A = 00000000000000000000001101001110, input B = 10111111001111100010101001010010, output OUT = 01000000110000011101100011111100
# refmod: input A =         846, input B = -1086444974, output OUT = -1086444128
# refmod: input A = 00000000000000000000001101001110, input B = 10111111001111100010101001010010, output OUT = 10111111001111100010110110100000
# UVM_INFO @ 1065: reporter [MISCMP] Miscompare for exp.data: lhs = 'hbf3e2da0 : rhs = 'h40c1d8fc
# UVM_INFO @ 1065: reporter [MISCMP] 1 Miscompare(s) for object tr@825 vs. exp@617
# UVM_WARNING @ 1065: uvm_test_top.env_h.comp [Comparator Mismatch] 
# adder: input A =        176, input B = 3016578207, output OUT = 1278389265
# adder: input A = 00000000000000000000000010110000, input B = 10110011110011010101010010011111, output OUT = 01001100001100101010110000010001
# refmod: input A =         176, input B = -1278389089, output OUT = -1278388913
# refmod: input A = 00000000000000000000000010110000, input B = 10110011110011010101010010011111, output OUT = 10110011110011010101010101001111
# UVM_INFO @ 1095: reporter [MISCMP] Miscompare for exp.data: lhs = 'hb3cd554f : rhs = 'h4c32ac11
# UVM_INFO @ 1095: reporter [MISCMP] 1 Miscompare(s) for object tr@825 vs. exp@617
# UVM_WARNING @ 1095: uvm_test_top.env_h.comp [Comparator Mismatch] 
# adder: input A =        984, input B = 2976995334, output OUT = 1317972946
# adder: input A = 00000000000000000000001111011000, input B = 10110001011100010101100000000110, output OUT = 01001110100011101010101111010010
# refmod: input A =         984, input B = -1317971962, output OUT = -1317970978
# refmod: input A = 00000000000000000000001111011000, input B = 10110001011100010101100000000110, output OUT = 10110001011100010101101111011110
# UVM_INFO @ 1125: reporter [MISCMP] Miscompare for exp.data: lhs = 'hb1715bde : rhs = 'h4e8eabd2
# UVM_INFO @ 1125: reporter [MISCMP] 1 Miscompare(s) for object tr@825 vs. exp@617
# UVM_WARNING @ 1125: uvm_test_top.env_h.comp [Comparator Mismatch] 
# adder: input A =        311, input B = 4026580033, output OUT =  268387574
# adder: input A = 00000000000000000000000100110111, input B = 11110000000000001011110001000001, output OUT = 00001111111111110100010011110110
# refmod: input A =         311, input B =  -268387263, output OUT =  -268386952
# refmod: input A = 00000000000000000000000100110111, input B = 11110000000000001011110001000001, output OUT = 11110000000000001011110101111000
# UVM_INFO @ 1155: reporter [MISCMP] Miscompare for exp.data: lhs = 'hf000bd78 : rhs = 'hfff44f6
# UVM_INFO @ 1155: reporter [MISCMP] 1 Miscompare(s) for object tr@825 vs. exp@617
# UVM_WARNING @ 1155: uvm_test_top.env_h.comp [Comparator Mismatch] 
# adder: input A =        113, input B = 4264084284, output OUT =   30883125
# adder: input A = 00000000000000000000000001110001, input B = 11111110001010001100001100111100, output OUT = 00000001110101110011110100110101
# refmod: input A =         113, input B =   -30883012, output OUT =   -30882899
# refmod: input A = 00000000000000000000000001110001, input B = 11111110001010001100001100111100, output OUT = 11111110001010001100001110101101
# UVM_INFO @ 1185: reporter [MISCMP] Miscompare for exp.data: lhs = 'hfe28c3ad : rhs = 'h1d73d35
# UVM_INFO @ 1185: reporter [MISCMP] 1 Miscompare(s) for object tr@825 vs. exp@617
# UVM_WARNING @ 1185: uvm_test_top.env_h.comp [Comparator Mismatch] 
# adder: input A =        603, input B = 2825535070, output OUT = 1469432829
# adder: input A = 00000000000000000000001001011011, input B = 10101000011010100011111001011110, output OUT = 01010111100101011100001111111101
# refmod: input A =         603, input B = -1469432226, output OUT = -1469431623
# refmod: input A = 00000000000000000000001001011011, input B = 10101000011010100011111001011110, output OUT = 10101000011010100100000010111001
# UVM_INFO @ 1215: reporter [MISCMP] Miscompare for exp.data: lhs = 'ha86a40b9 : rhs = 'h5795c3fd
# UVM_INFO @ 1215: reporter [MISCMP] 1 Miscompare(s) for object tr@825 vs. exp@617
# UVM_WARNING @ 1215: uvm_test_top.env_h.comp [Comparator Mismatch] 
# adder: input A =        954, input B = 4235583823, output OUT =   59384427
# adder: input A = 00000000000000000000001110111010, input B = 11111100011101011110000101001111, output OUT = 00000011100010100010001001101011
# refmod: input A =         954, input B =   -59383473, output OUT =   -59382519
# refmod: input A = 00000000000000000000001110111010, input B = 11111100011101011110000101001111, output OUT = 11111100011101011110010100001001
# UVM_INFO @ 1245: reporter [MISCMP] Miscompare for exp.data: lhs = 'hfc75e509 : rhs = 'h38a226b
# UVM_INFO @ 1245: reporter [MISCMP] 1 Miscompare(s) for object tr@825 vs. exp@617
# UVM_WARNING @ 1245: uvm_test_top.env_h.comp [Comparator Mismatch] 
# adder: input A =        717, input B = 3519719871, output OUT =  775248142
# adder: input A = 00000000000000000000001011001101, input B = 11010001110010101010100110111111, output OUT = 00101110001101010101100100001110
# refmod: input A =         717, input B =  -775247425, output OUT =  -775246708
# refmod: input A = 00000000000000000000001011001101, input B = 11010001110010101010100110111111, output OUT = 11010001110010101010110010001100
# UVM_INFO @ 1275: reporter [MISCMP] Miscompare for exp.data: lhs = 'hd1caac8c : rhs = 'h2e35590e
# UVM_INFO @ 1275: reporter [MISCMP] 1 Miscompare(s) for object tr@825 vs. exp@617
# UVM_WARNING @ 1275: uvm_test_top.env_h.comp [Comparator Mismatch] 
# adder: input A =        663, input B = 3289508899, output OUT = 1005459060
# adder: input A = 00000000000000000000001010010111, input B = 11000100000100011110110000100011, output OUT = 00111011111011100001011001110100
