Lab4_ISA/Lab4_Dadda_Tree/sim/transcript
# //  Questa Sim-64
# //  Version 10.7c linux_x86_64 Aug 17 2018
# //
# //  Copyright 1991-2018 Mentor Graphics Corporation
# //  All Rights Reserved.
# //
# //  QuestaSim and its associated documentation contain trade
# //  secrets and commercial or financial information that are the property of
# //  Mentor Graphics Corporation and are privileged, confidential,
# //  and exempt from disclosure under the Freedom of Information Act,
# //  5 U.S.C. Section 552. Furthermore, this information
# //  is prohibited from disclosure under the Trade Secrets Act,
# //  18 U.S.C. Section 1905.
# //
# vsim top 
# Start time: 21:47:53 on Feb 02,2022
# ** Note: (vsim-3812) Design is being optimized...
# ** Warning: ../tb/monitor.sv(49): (vopt-2240) Treating stand-alone use of function 'begin_tr' as an implicit VOID cast.
# ** Warning: ../tb/monitor_out.sv(48): (vopt-2240) Treating stand-alone use of function 'begin_tr' as an implicit VOID cast.
# Loading sv_std.std
# Loading mtiUvm.uvm_pkg
# Loading work.top_sv_unit(fast)
# Loading work.top(fast)
# Loading work.DUT(fast)
# Loading mtiUvm.questa_uvm_pkg(fast)
# Loading work.dut_if(fast)
# Loading std.standard
# Loading std.textio(body)
# Loading ieee.std_logic_1164(body)
# Loading ieee.std_logic_arith(body)
# Loading ieee.std_logic_unsigned(body)
# Loading ieee.std_logic_textio(body)
# Loading work.mbe_multiplier(beh)#1
# Loading ieee.numeric_std(body)
# Loading work.booth_encoder(beh)#1
# Loading work.dadda_tree(beh)#1
# ** Warning: (vsim-3839) Variable '/top/out/data', driven via a port connection, is multiply driven. See ../src/DUT.sv(3).
#    Time: 0 ns  Iteration: 0  Instance: /top/sum File: ../src/DUT.sv Line: 9
# ** Warning: (vsim-3764) Stand-alone call to function 'begin_tr' treated as implicit void cast.
#    Time: 0 ns  Iteration: 0  Region: /top_sv_unit::driver File: ../tb/driver.sv Line: 67
# Loading /software/mentor/questa10.7c/questasim/uvm-1.1d/linux_x86_64/uvm_dpi.so
run 4 us
# ----------------------------------------------------------------
# UVM-1.1d
# (C) 2007-2013 Mentor Graphics Corporation
# (C) 2007-2013 Cadence Design Systems, Inc.
# (C) 2006-2013 Synopsys, Inc.
# (C) 2011-2013 Cypress Semiconductor Corp.
# ----------------------------------------------------------------
# 
#   ***********       IMPORTANT RELEASE NOTES         ************
# 
#   You are using a version of the UVM library that has been compiled
#   with `UVM_NO_DEPRECATED undefined.
#   See http://www.eda.org/svdb/view.php?id=3313 for more details.
# 
#   You are using a version of the UVM library that has been compiled
#   with `UVM_OBJECT_MUST_HAVE_CONSTRUCTOR undefined.
#   See http://www.eda.org/svdb/view.php?id=3770 for more details.
# 
#       (Specify +UVM_NO_RELNOTES to turn off this notice)
# 
# UVM_INFO verilog_src/questa_uvm_pkg-1.2/src/questa_uvm_pkg.sv(215) @ 0: reporter [Questa UVM] QUESTA_UVM-1.2.3
# UVM_INFO verilog_src/questa_uvm_pkg-1.2/src/questa_uvm_pkg.sv(216) @ 0: reporter [Questa UVM]  questa_uvm::init(+struct)
# UVM_INFO @ 0: reporter [RNTST] Running test simple_test...
# mbe: input A =  731014106, input B =  175121918, output OUT =   128016592327775308
# mbe: input A = 00101011100100100110001111011010, input B = 00001010011100000010010111111110, output OUT = 0000000111000110110011100110100110010111000011011001010001001100
# refmod: input A =   731014106, input B =   175121918, output OUT =    128016592327775308
# refmod: input A = 00101011100100100110001111011010, input B = 00001010011100000010010111111110, output OUT = 0000000111000110110011100110100110010111000011011001010001001100
# UVM_INFO @ 45: uvm_test_top.env_h.comp [Comparator Match] 
# mbe: input A =   80379532, input B =  554858997, output OUT =    44599306504849404
# mbe: input A = 00000100110010100111111010001100, input B = 00100001000100100111100111110101, output OUT = 0000000010011110011100101101010100111101011100110100011111111100
# refmod: input A =    80379532, input B =   554858997, output OUT =     44599306504849404
# refmod: input A = 00000100110010100111111010001100, input B = 00100001000100100111100111110101, output OUT = 0000000010011110011100101101010100111101011100110100011111111100
# UVM_INFO @ 75: uvm_test_top.env_h.comp [Comparator Match] 
# mbe: input A =  260878709, input B = 1665468699, output OUT =   434485324075029591
# mbe: input A = 00001111100011001011000101110101, input B = 01100011010001010000100100011011, output OUT = 0000011000000111100110100001100110101001100111001101010001010111
# refmod: input A =   260878709, input B =  1665468699, output OUT =    434485324075029591
# refmod: input A = 00001111100011001011000101110101, input B = 01100011010001010000100100011011, output OUT = 0000011000000111100110100001100110101001100111001101010001010111
# UVM_INFO @ 105: uvm_test_top.env_h.comp [Comparator Match] 
# mbe: input A = 2117138061, input B = 1952321136, output OUT =  4133333384320357296
# mbe: input A = 01111110001100001111011010001101, input B = 01110100010111100000111001110000, output OUT = 0011100101011100100011001101000001001110101011011001001110110000
# refmod: input A =  2117138061, input B =  1952321136, output OUT =   4133333384320357296
# refmod: input A = 01111110001100001111011010001101, input B = 01110100010111100000111001110000, output OUT = 0011100101011100100011001101000001001110101011011001001110110000
# UVM_INFO @ 135: uvm_test_top.env_h.comp [Comparator Match] 
# mbe: input A =  534645072, input B = 1568245230, output OUT =   838454583907006560
# mbe: input A = 00011111110111100000100101010000, input B = 01011101011110011000010111101110, output OUT = 0000101110100010110010100000000001110010000100110011100001100000
# refmod: input A =   534645072, input B =  1568245230, output OUT =    838454583907006560
# refmod: input A = 00011111110111100000100101010000, input B = 01011101011110011000010111101110, output OUT = 0000101110100010110010100000000001110010000100110011100001100000
# UVM_INFO @ 165: uvm_test_top.env_h.comp [Comparator Match] 
# mbe: input A =  140412695, input B = 1111608309, output OUT =   156083918451082755
# mbe: input A = 00001000010111101000011100010111, input B = 01000010010000011100101111110101, output OUT = 0000001000101010100001010111111100110010011011011000011000000011
# refmod: input A =   140412695, input B =  1111608309, output OUT =    156083918451082755
# refmod: input A = 00001000010111101000011100010111, input B = 01000010010000011100101111110101, output OUT = 0000001000101010100001010111111100110010011011011000011000000011
# UVM_INFO @ 195: uvm_test_top.env_h.comp [Comparator Match] 
# mbe: input A = 1613751132, input B = 1799801806, output OUT =  2904432201808144392
# mbe: input A = 01100000001011111110001101011100, input B = 01101011010001101100101111001110, output OUT = 0010100001001110100111011011001011111110111110101110100000001000
# refmod: input A =  1613751132, input B =  1799801806, output OUT =   2904432201808144392
# refmod: input A = 01100000001011111110001101011100, input B = 01101011010001101100101111001110, output OUT = 0010100001001110100111011011001011111110111110101110100000001000
# UVM_INFO @ 225: uvm_test_top.env_h.comp [Comparator Match] 
# mbe: input A =  383892866, input B = 1223760945, output OUT =   469793096474918370
# mbe: input A = 00010110111000011011110110000010, input B = 01001000111100010001110000110001, output OUT = 0000011010000101000010100101010100001001010100010111110111100010
# refmod: input A =   383892866, input B =  1223760945, output OUT =    469793096474918370
# refmod: input A = 00010110111000011011110110000010, input B = 01001000111100010001110000110001, output OUT = 0000011010000101000010100101010100001001010100010111110111100010
# UVM_INFO @ 255: uvm_test_top.env_h.comp [Comparator Match] 
# mbe: input A = 1725197149, input B = 1315262526, output OUT =  2269087160041738374
# mbe: input A = 01100110110101000110101101011101, input B = 01001110011001010101000000111110, output OUT = 0001111101111101011010101011111111111010101100000001000010000110
# refmod: input A =  1725197149, input B =  1315262526, output OUT =   2269087160041738374
# refmod: input A = 01100110110101000110101101011101, input B = 01001110011001010101000000111110, output OUT = 0001111101111101011010101011111111111010101100000001000010000110
# UVM_INFO @ 285: uvm_test_top.env_h.comp [Comparator Match] 
# mbe: input A =  225746597, input B =  790780234, output OUT =   178515946800363698
# mbe: input A = 00001101011101001001111010100101, input B = 00101111001000100101100101001010, output OUT = 0000001001111010001101110100111011001011110001110011100010110010
# refmod: input A =   225746597, input B =   790780234, output OUT =    178515946800363698
# refmod: input A = 00001101011101001001111010100101, input B = 00101111001000100101100101001010, output OUT = 0000001001111010001101110100111011001011110001110011100010110010
# UVM_INFO @ 315: uvm_test_top.env_h.comp [Comparator Match] 
# mbe: input A = 1541776122, input B = 1428688627, output OUT =  2202718010881564494
# mbe: input A = 01011011111001011010001011111010, input B = 01010101001010000000111011110011, output OUT = 0001111010010001101000000101110001000010111100110101111101001110
# refmod: input A =  1541776122, input B =  1428688627, output OUT =   2202718010881564494
# refmod: input A = 01011011111001011010001011111010, input B = 01010101001010000000111011110011, output OUT = 0001111010010001101000000101110001000010111100110101111101001110
# UVM_INFO @ 345: uvm_test_top.env_h.comp [Comparator Match] 
# mbe: input A = 1246460782, input B = 1569374089, output OUT =  1956163254225477598
# mbe: input A = 01001010010010110111101101101110, input B = 01011101100010101011111110001001, output OUT = 0001101100100101101100000001110110010010110010000001111111011110
# refmod: input A =  1246460782, input B =  1569374089, output OUT =   1956163254225477598
# refmod: input A = 01001010010010110111101101101110, input B = 01011101100010101011111110001001, output OUT = 0001101100100101101100000001110110010010110010000001111111011110
# UVM_INFO @ 375: uvm_test_top.env_h.comp [Comparator Match] 
# mbe: input A = 1712994404, input B =  601358052, output OUT =  1030122977876341008
# mbe: input A = 01100110000110100011100001100100, input B = 00100011110101111111111011100100, output OUT = 0000111001001011101110110110001111111011010010010111000100010000
# refmod: input A =  1712994404, input B =   601358052, output OUT =   1030122977876341008
# refmod: input A = 01100110000110100011100001100100, input B = 00100011110101111111111011100100, output OUT = 0000111001001011101110110110001111111011010010010111000100010000
# UVM_INFO @ 405: uvm_test_top.env_h.comp [Comparator Match] 
# mbe: input A = 1399840740, input B =  350842964, output OUT =   491124274349553360
# mbe: input A = 01010011011011111101111111100100, input B = 00010100111010010111000001010100, output OUT = 0000011011010000110100101110110011101001001011010011011011010000
# refmod: input A =  1399840740, input B =   350842964, output OUT =    491124274349553360
# refmod: input A = 01010011011011111101111111100100, input B = 00010100111010010111000001010100, output OUT = 0000011011010000110100101110110011101001001011010011011011010000
# UVM_INFO @ 435: uvm_test_top.env_h.comp [Comparator Match] 
# mbe: input A =   91952930, input B = 1965175866, output OUT =   180703678843987380
# mbe: input A = 00000101011110110001011100100010, input B = 01110101001000100011010000111010, output OUT = 0000001010000001111111010000100111011011000110100010010110110100
# refmod: input A =    91952930, input B =  1965175866, output OUT =    180703678843987380
# refmod: input A = 00000101011110110001011100100010, input B = 01110101001000100011010000111010, output OUT = 0000001010000001111111010000100111011011000110100010010110110100
# UVM_INFO @ 465: uvm_test_top.env_h.comp [Comparator Match] 
# mbe: input A =  925443359, input B =  460769223, output OUT =   426415817456940057
# mbe: input A = 00110111001010010010010100011111, input B = 00011011011101101100011111000111, output OUT = 0000010111101010111011101110110100111110001000001111010000011001
# refmod: input A =   925443359, input B =   460769223, output OUT =    426415817456940057
# refmod: input A = 00110111001010010010010100011111, input B = 00011011011101101100011111000111, output OUT = 0000010111101010111011101110110100111110001000001111010000011001
# UVM_INFO @ 495: uvm_test_top.env_h.comp [Comparator Match] 
# mbe: input A =  876184098, input B =  614306908, output OUT =   538245944081148984
# mbe: input A = 00110100001110011000001000100010, input B = 00100100100111011001010001011100, output OUT = 0000011101111000001110111101010110011010110000000110110000111000
# refmod: input A =   876184098, input B =   614306908, output OUT =    538245944081148984
# refmod: input A = 00110100001110011000001000100010, input B = 00100100100111011001010001011100, output OUT = 0000011101111000001110111101010110011010110000000110110000111000
# UVM_INFO @ 525: uvm_test_top.env_h.comp [Comparator Match] 
# mbe: input A = 1568767451, input B = 1075088083, output OUT =  1686563191568386433
# mbe: input A = 01011101100000010111110111011011, input B = 01000000000101001000101011010011, output OUT = 0001011101100111111000000100100101110100101011101100100110000001
# refmod: input A =  1568767451, input B =  1075088083, output OUT =   1686563191568386433
# refmod: input A = 01011101100000010111110111011011, input B = 01000000000101001000101011010011, output OUT = 0001011101100111111000000100100101110100101011101100100110000001
# UVM_INFO @ 555: uvm_test_top.env_h.comp [Comparator Match] 
# mbe: input A = 1678953408, input B =  444558831, output OUT =   746393564363946048
# mbe: input A = 01100100000100101100101111000000, input B = 00011010011111110110110111101111, output OUT = 0000101001011011101110001111111000000010100011001111100001000000
# refmod: input A =  1678953408, input B =   444558831, output OUT =    746393564363946048
# refmod: input A = 01100100000100101100101111000000, input B = 00011010011111110110110111101111, output OUT = 0000101001011011101110001111111000000010100011001111100001000000
# UVM_INFO @ 585: uvm_test_top.env_h.comp [Comparator Match] 
# mbe: input A = 1221817856, input B = 2011566020, output OUT =  2457767281758853120
# mbe: input A = 01001000110100110111011000000000, input B = 01110111111001100000111111000100, output OUT = 0010001000011011101111100101001000101001110100000101100000000000
# refmod: input A =  1221817856, input B =  2011566020, output OUT =   2457767281758853120
# refmod: input A = 01001000110100110111011000000000, input B = 01110111111001100000111111000100, output OUT = 0010001000011011101111100101001000101001110100000101100000000000
# UVM_INFO @ 615: uvm_test_top.env_h.comp [Comparator Match] 
# mbe: input A =  483247762, input B =   42791132, output OUT =    20678718772446584
# mbe: input A = 00011100110011011100011010010010, input B = 00000010100011001111000011011100, output OUT = 0000000001001001011101110010111101100110110101111000010101111000
# refmod: input A =   483247762, input B =    42791132, output OUT =     20678718772446584
# refmod: input A = 00011100110011011100011010010010, input B = 00000010100011001111000011011100, output OUT = 0000000001001001011101110010111101100110110101111000010101111000
# UVM_INFO @ 645: uvm_test_top.env_h.comp [Comparator Match] 
# mbe: input A =  459354220, input B = 1329403143, output OUT =   610666943818313460
# mbe: input A = 00011011011000010011000001101100, input B = 01001111001111010001010100000111, output OUT = 0000100001111001100001100101100110010110010111010010111011110100
# refmod: input A =   459354220, input B =  1329403143, output OUT =    610666943818313460
# refmod: input A = 00011011011000010011000001101100, input B = 01001111001111010001010100000111, output OUT = 0000100001111001100001100101100110010110010111010010111011110100
# UVM_INFO @ 675: uvm_test_top.env_h.comp [Comparator Match] 
# mbe: input A = 1266089798, input B = 2073383016, output OUT =  2625089083904070768
# mbe: input A = 01001011011101101111111101000110, input B = 01111011100101010101000001101000, output OUT = 0010010001101110001100001001110100001101110110111001010001110000
# refmod: input A =  1266089798, input B =  2073383016, output OUT =   2625089083904070768
# refmod: input A = 01001011011101101111111101000110, input B = 01111011100101010101000001101000, output OUT = 0010010001101110001100001001110100001101110110111001010001110000
# UVM_INFO @ 705: uvm_test_top.env_h.comp [Comparator Match] 
# mbe: input A =  652409172, input B = 1668989896, output OUT =  1088864316125726112
# mbe: input A = 00100110111000101111100101010100, input B = 01100011011110101100001111001000, output OUT = 0000111100011100011011000101001110010011010001011100010110100000
# refmod: input A =   652409172, input B =  1668989896, output OUT =   1088864316125726112
# refmod: input A = 00100110111000101111100101010100, input B = 01100011011110101100001111001000, output OUT = 0000111100011100011011000101001110010011010001011100010110100000
# UVM_INFO @ 735: uvm_test_top.env_h.comp [Comparator Match] 
# mbe: input A =  890816112, input B = 1746323357, output OUT =  1555652983177527984
# mbe: input A = 00110101000110001100011001110000, input B = 01101000000101101100011110011101, output OUT = 0001010110010110110010100010010101100000000100101100001010110000
# refmod: input A =   890816112, input B =  1746323357, output OUT =   1555652983177527984
# refmod: input A = 00110101000110001100011001110000, input B = 01101000000101101100011110011101, output OUT = 0001010110010110110010100010010101100000000100101100001010110000
# UVM_INFO @ 765: uvm_test_top.env_h.comp [Comparator Match] 
# mbe: input A = 1778436678, input B =  206073383, output OUT =   366488462686741674
# mbe: input A = 01101010000000001100101001000110, input B = 00001100010010000110111000100111, output OUT = 0000010100010110000001110101000010101000101110001110010010101010
# refmod: input A =  1778436678, input B =   206073383, output OUT =    366488462686741674
# refmod: input A = 01101010000000001100101001000110, input B = 00001100010010000110111000100111, output OUT = 0000010100010110000001110101000010101000101110001110010010101010
# UVM_INFO @ 795: uvm_test_top.env_h.comp [Comparator Match] 
# mbe: input A =  940084423, input B =  357238883, output OUT =   335834709198219509
# mbe: input A = 00111000000010001000110011000111, input B = 00010101010010110000100001100011, output OUT = 0000010010101001000111111110001110000001000000011010100011110101
# refmod: input A =   940084423, input B =   357238883, output OUT =    335834709198219509
# refmod: input A = 00111000000010001000110011000111, input B = 00010101010010110000100001100011, output OUT = 0000010010101001000111111110001110000001000000011010100011110101
# UVM_INFO @ 825: uvm_test_top.env_h.comp [Comparator Match] 
# mbe: input A = 1766121975, input B = 1385076644, output OUT =  2446214298027651900
# mbe: input A = 01101001010001001110000111110111, input B = 01010010100011101001011110100100, output OUT = 0010000111110010101100101111000110000110011010110111001100111100
# refmod: input A =  1766121975, input B =  1385076644, output OUT =   2446214298027651900
# refmod: input A = 01101001010001001110000111110111, input B = 01010010100011101001011110100100, output OUT = 0010000111110010101100101111000110000110011010110111001100111100
# UVM_INFO @ 855: uvm_test_top.env_h.comp [Comparator Match] 
# mbe: input A = 2067343683, input B =  977174399, output OUT =  2020155320961971517
# mbe: input A = 01111011001110010010100101000011, input B = 00111010001111100111111101111111, output OUT = 0001110000001001000010001000111110101001000011011011010100111101
# refmod: input A =  2067343683, input B =   977174399, output OUT =   2020155320961971517
# refmod: input A = 01111011001110010010100101000011, input B = 00111010001111100111111101111111, output OUT = 0001110000001001000010001000111110101001000011011011010100111101
# UVM_INFO @ 885: uvm_test_top.env_h.comp [Comparator Match] 
# mbe: input A =  378808867, input B = 1032434646, output OUT =   391095398502806082
# mbe: input A = 00010110100101000010101000100011, input B = 00111101100010011011001111010110, output OUT = 0000010101101101011100110011000101011101000011001011001001000010
# refmod: input A =   378808867, input B =  1032434646, output OUT =    391095398502806082
# refmod: input A = 00010110100101000010101000100011, input B = 00111101100010011011001111010110, output OUT = 0000010101101101011100110011000101011101000011001011001001000010
# UVM_INFO @ 915: uvm_test_top.env_h.comp [Comparator Match] 
# mbe: input A = 1977803550, input B =  108385717, output OUT =   214365655851895350
# mbe: input A = 01110101111000101110001100011110, input B = 00000110011101011101010110110101, output OUT = 0000001011111001100101000110110110100001000110001000101000110110
# refmod: input A =  1977803550, input B =   108385717, output OUT =    214365655851895350
# refmod: input A = 01110101111000101110001100011110, input B = 00000110011101011101010110110101, output OUT = 0000001011111001100101000110110110100001000110001000101000110110
# UVM_INFO @ 945: uvm_test_top.env_h.comp [Comparator Match] 
# mbe: input A =  785484069, input B = 1146585648, output OUT =   900624760248041712
# mbe: input A = 00101110110100011000100100100101, input B = 01000100010101111000001000110000, output OUT = 0000110001111111101010010111001010011110100000011000000011110000
# refmod: input A =   785484069, input B =  1146585648, output OUT =    900624760248041712
# refmod: input A = 00101110110100011000100100100101, input B = 01000100010101111000001000110000, output OUT = 0000110001111111101010010111001010011110100000011000000011110000
# UVM_INFO @ 975: uvm_test_top.env_h.comp [Comparator Match] 
# mbe: input A =  913974564, input B =  690282283, output OUT =   630900448641849612
# mbe: input A = 00110110011110100010010100100100, input B = 00101001001001001101111100101011, output OUT = 0000100011000001011010001001110110001001111011101001100100001100
# refmod: input A =   913974564, input B =   690282283, output OUT =    630900448641849612
# refmod: input A = 00110110011110100010010100100100, input B = 00101001001001001101111100101011, output OUT = 0000100011000001011010001001110110001001111011101001100100001100
# UVM_INFO @ 1005: uvm_test_top.env_h.comp [Comparator Match] 
# mbe: input A = 1544876892, input B = 1738059494, output OUT =  2685087949201812648
# mbe: input A = 01011100000101001111001101011100, input B = 01100111100110001010111011100110, output OUT = 0010010101000011010110010100001101111010110110110010110010101000
# refmod: input A =  1544876892, input B =  1738059494, output OUT =   2685087949201812648
# refmod: input A = 01011100000101001111001101011100, input B = 01100111100110001010111011100110, output OUT = 0010010101000011010110010100001101111010110110110010110010101000
# UVM_INFO @ 1035: uvm_test_top.env_h.comp [Comparator Match] 
# mbe: input A = 1961337324, input B =  556136145, output OUT =  1090770578413975980
# mbe: input A = 01110100111001111010000111101100, input B = 00100001001001011111011011010001, output OUT = 0000111100100011001100100000111111011001110011111111100110101100
# refmod: input A =  1961337324, input B =   556136145, output OUT =   1090770578413975980
# refmod: input A = 01110100111001111010000111101100, input B = 00100001001001011111011011010001, output OUT = 0000111100100011001100100000111111011001110011111111100110101100
# UVM_INFO @ 1065: uvm_test_top.env_h.comp [Comparator Match] 
# mbe: input A = 1727143129, input B =  724064170, output OUT =  1250562456170587930
# mbe: input A = 01100110111100100001110011011001, input B = 00101011001010000101011110101010, output OUT = 0001000101011010111000111110110110011001011111001110011100011010
# refmod: input A =  1727143129, input B =   724064170, output OUT =   1250562456170587930
# refmod: input A = 01100110111100100001110011011001, input B = 00101011001010000101011110101010, output OUT = 0001000101011010111000111110110110011001011111001110011100011010
# UVM_INFO @ 1095: uvm_test_top.env_h.comp [Comparator Match] 
# mbe: input A =  246654638, input B = 1595147462, output OUT =   393450519796228756
# mbe: input A = 00001110101100111010011010101110, input B = 01011111000101000000010011000110, output OUT = 0000010101110101110100010010100111000101001001011010001010010100
# refmod: input A =   246654638, input B =  1595147462, output OUT =    393450519796228756
# refmod: input A = 00001110101100111010011010101110, input B = 01011111000101000000010011000110, output OUT = 0000010101110101110100010010100111000101001001011010001010010100
# UVM_INFO @ 1125: uvm_test_top.env_h.comp [Comparator Match] 
# mbe: input A = 1646293170, input B = 1054092444, output OUT =  1735345191105807480
# mbe: input A = 01100010001000000111000010110010, input B = 00111110110101000010110010011100, output OUT = 0001100000010101001011110100000111001110100010110100010001111000
# refmod: input A =  1646293170, input B =  1054092444, output OUT =   1735345191105807480
# refmod: input A = 01100010001000000111000010110010, input B = 00111110110101000010110010011100, output OUT = 0001100000010101001011110100000111001110100010110100010001111000
# UVM_INFO @ 1155: uvm_test_top.env_h.comp [Comparator Match] 
# mbe: input A = 1801400709, input B = 1247084804, output OUT =  2246499450108726036
# mbe: input A = 01101011010111110011000110000101, input B = 01001010010101010000000100000100, output OUT = 0001111100101101001010110101100011101111110101110100101100010100
# refmod: input A =  1801400709, input B =  1247084804, output OUT =   2246499450108726036
# refmod: input A = 01101011010111110011000110000101, input B = 01001010010101010000000100000100, output OUT = 0001111100101101001010110101100011101111110101110100101100010100
# UVM_INFO @ 1185: uvm_test_top.env_h.comp [Comparator Match] 
# mbe: input A = 1637527071, input B =  818587331, output OUT =  1340458914490137501
# mbe: input A = 01100001100110101010111000011111, input B = 00110000110010101010011011000011, output OUT = 0001001010011010010001000100011111011010001100001011101110011101
# refmod: input A =  1637527071, input B =   818587331, output OUT =   1340458914490137501
# refmod: input A = 01100001100110101010111000011111, input B = 00110000110010101010011011000011, output OUT = 0001001010011010010001000100011111011010001100001011101110011101
# UVM_INFO @ 1215: uvm_test_top.env_h.comp [Comparator Match] 
# mbe: input A =  268764861, input B =   55086149, output OUT =    14805221179010289
# mbe: input A = 00010000000001010000011010111101, input B = 00000011010010001000110001000101, output OUT = 0000000000110100100110010100010100101101001100100010110011110001
# refmod: input A =   268764861, input B =    55086149, output OUT =     14805221179010289
# refmod: input A = 00010000000001010000011010111101, input B = 00000011010010001000110001000101, output OUT = 0000000000110100100110010100010100101101001100100010110011110001
# UVM_INFO @ 1245: uvm_test_top.env_h.comp [Comparator Match] 
# mbe: input A = 1106214410, input B = 2036386610, output OUT =  2252680212313050100
# mbe: input A = 01000001111011110111111000001010, input B = 01111001011000001100101100110010, output OUT = 0001111101000011001000001011011111000111011110001000101111110100
# refmod: input A =  1106214410, input B =  2036386610, output OUT =   2252680212313050100
# refmod: input A = 01000001111011110111111000001010, input B = 01111001011000001100101100110010, output OUT = 0001111101000011001000001011011111000111011110001000101111110100
# UVM_INFO @ 1275: uvm_test_top.env_h.comp [Comparator Match] 
# mbe: input A = 2126079141, input B = 2008913795, output OUT =  4271109715616650095
# mbe: input A = 01111110101110010110010010100101, input B = 01110111101111011001011110000011, output OUT = 0011101101000110000001111010100000110100000011001101001101101111
# refmod: input A =  2126079141, input B =  2008913795, output OUT =   4271109715616650095
# refmod: input A = 01111110101110010110010010100101, input B = 01110111101111011001011110000011, output OUT = 0011101101000110000001111010100000110100000011001101001101101111
# UVM_INFO @ 1305: uvm_test_top.env_h.comp [Comparator Match] 
# mbe: input A = 1937459091, input B =  999367749, output OUT =  1936234130552256159
# mbe: input A = 01110011011110110100011110010011, input B = 00111011100100010010010001000101, output OUT = 0001101011011110111000101010111011100001100011011111011010011111
# refmod: input A =  1937459091, input B =   999367749, output OUT =   1936234130552256159
# refmod: input A = 01110011011110110100011110010011, input B = 00111011100100010010010001000101, output OUT = 0001101011011110111000101010111011100001100011011111011010011111
# UVM_INFO @ 1335: uvm_test_top.env_h.comp [Comparator Match] 
# mbe: input A = 1889158812, input B = 1197094635, output OUT =  2261501878508173620
# mbe: input A = 01110000100110100100011010011100, input B = 01000111010110100011011011101011, output OUT = 0001111101100010011101111111100111111111010110111011100100110100
# refmod: input A =  1889158812, input B =  1197094635, output OUT =   2261501878508173620
# refmod: input A = 01110000100110100100011010011100, input B = 01000111010110100011011011101011, output OUT = 0001111101100010011101111111100111111111010110111011100100110100
# UVM_INFO @ 1365: uvm_test_top.env_h.comp [Comparator Match] 
# mbe: input A = 1769917892, input B =  203933795, output OUT =   360946072553960140
# mbe: input A = 01101001011111101100110111000100, input B = 00001100001001111100100001100011, output OUT = 0000010100000010010101101000101001100101101001101011001011001100
# refmod: input A =  1769917892, input B =   203933795, output OUT =    360946072553960140
# refmod: input A = 01101001011111101100110111000100, input B = 00001100001001111100100001100011, output OUT = 0000010100000010010101101000101001100101101001101011001011001100
# UVM_INFO @ 1395: uvm_test_top.env_h.comp [Comparator Match] 
# mbe: input A = 1881716335, input B = 1096569458, output OUT =  2063432661580696430
# mbe: input A = 01110000001010001011011001101111, input B = 01000001010111000101001001110010, output OUT = 0001110010100010110010010001001010111011011101001100101101101110
# refmod: input A =  1881716335, input B =  1096569458, output OUT =   2063432661580696430
# refmod: input A = 01110000001010001011011001101111, input B = 01000001010111000101001001110010, output OUT = 0001110010100010110010010001001010111011011101001100101101101110
# UVM_INFO @ 1425: uvm_test_top.env_h.comp [Comparator Match] 
# mbe: input A = 1774463055, input B = 1288052872, output OUT =  2285602234250643960
# mbe: input A = 01101001110001000010100001001111, input B = 01001100110001100010000010001000, output OUT = 0001111110111000000101110001111101010110010110010100100111111000
# refmod: input A =  1774463055, input B =  1288052872, output OUT =   2285602234250643960
# refmod: input A = 01101001110001000010100001001111, input B = 01001100110001100010000010001000, output OUT = 0001111110111000000101110001111101010110010110010100100111111000
# UVM_INFO @ 1455: uvm_test_top.env_h.comp [Comparator Match] 
# mbe: input A = 1436771489, input B = 1472451231, output OUT =  2115575947643752959
# mbe: input A = 01010101101000110110010010100001, input B = 01010111110000111101001010011111, output OUT = 0001110101011100000010010001110110010110101010101001000111111111
# refmod: input A =  1436771489, input B =  1472451231, output OUT =   2115575947643752959
# refmod: input A = 01010101101000110110010010100001, input B = 01010111110000111101001010011111, output OUT = 0001110101011100000010010001110110010110101010101001000111111111
# UVM_INFO @ 1485: uvm_test_top.env_h.comp [Comparator Match] 
# mbe: input A = 1111989751, input B = 1067334005, output OUT =  1186864474453782755
# mbe: input A = 01000010010001111001110111110111, input B = 00111111100111100011100101110101, output OUT = 0001000001111000100101101111001110000100010110010011000011100011
# refmod: input A =  1111989751, input B =  1067334005, output OUT =   1186864474453782755
# refmod: input A = 01000010010001111001110111110111, input B = 00111111100111100011100101110101, output OUT = 0001000001111000100101101111001110000100010110010011000011100011
# UVM_INFO @ 1515: uvm_test_top.env_h.comp [Comparator Match] 
# mbe: input A = 1114038146, input B = 1876740514, output OUT =  2090760522739647044
# mbe: input A = 01000010011001101101111110000010, input B = 01101111110111001100100110100010, output OUT = 0001110100000011110111111001111000111100010011101000001001000100
# refmod: input A =  1114038146, input B =  1876740514, output OUT =   2090760522739647044
# refmod: input A = 01000010011001101101111110000010, input B = 01101111110111001100100110100010, output OUT = 0001110100000011110111111001111000111100010011101000001001000100
# UVM_INFO @ 1545: uvm_test_top.env_h.comp [Comparator Match] 
# mbe: input A = 1038458894, input B =  416159571, output OUT =   432164607828174474
# mbe: input A = 00111101111001011010000000001110, input B = 00011000110011100001011101010011, output OUT = 0000010111111111010110110110101111001110000110000010011010001010
# refmod: input A =  1038458894, input B =   416159571, output OUT =    432164607828174474
# refmod: input A = 00111101111001011010000000001110, input B = 00011000110011100001011101010011, output OUT = 0000010111111111010110110110101111001110000110000010011010001010
# UVM_INFO @ 1575: uvm_test_top.env_h.comp [Comparator Match] 
# mbe: input A = 1484144753, input B = 1048310289, output OUT =  1555844214935263617
# mbe: input A = 01011000011101100100000001110001, input B = 00111110011110111111001000010001, output OUT = 0001010110010111011110000001000111111101000100000001100110000001
# refmod: input A =  1484144753, input B =  1048310289, output OUT =   1555844214935263617
# refmod: input A = 01011000011101100100000001110001, input B = 00111110011110111111001000010001, output OUT = 0001010110010111011110000001000111111101000100000001100110000001
# UVM_INFO @ 1605: uvm_test_top.env_h.comp [Comparator Match] 
# mbe: input A =   48072738, input B =  488282588, output OUT =    23473080922885944
# mbe: input A = 00000010110111011000100000100010, input B = 00011101000110101001100111011100, output OUT = 0000000001010011011001001010010010001010001100010100111100111000
# refmod: input A =    48072738, input B =   488282588, output OUT =     23473080922885944
# refmod: input A = 00000010110111011000100000100010, input B = 00011101000110101001100111011100, output OUT = 0000000001010011011001001010010010001010001100010100111100111000
# UVM_INFO @ 1635: uvm_test_top.env_h.comp [Comparator Match] 
# mbe: input A =   69971450, input B =  373111245, output OUT =    26107134823955250
# mbe: input A = 00000100001010111010110111111010, input B = 00010110001111010011100111001101, output OUT = 0000000001011100110000000100110100000001010010001111101100110010
# refmod: input A =    69971450, input B =   373111245, output OUT =     26107134823955250
# refmod: input A = 00000100001010111010110111111010, input B = 00010110001111010011100111001101, output OUT = 0000000001011100110000000100110100000001010010001111101100110010
# UVM_INFO @ 1665: uvm_test_top.env_h.comp [Comparator Match] 
# mbe: input A = 1953219278, input B = 1325665226, output OUT =  2589314875597426828
# mbe: input A = 01110100011010111100001011001110, input B = 01001111000001000000101111001010, output OUT = 0010001111101111000110000010100100011011100111101001000010001100
# refmod: input A =  1953219278, input B =  1325665226, output OUT =   2589314875597426828
